^C:\USERS\18\DESKTOP\PROJECT GRANADA\ENGINE\DEBUG\ACTOR.OBJ|C:\USERS\18\DESKTOP\PROJECT GRANADA\ENGINE\DEBUG\BULLET.OBJ|C:\USERS\18\DESKTOP\PROJECT GRANADA\ENGINE\DEBUG\DLLMAIN.OBJ|C:\USERS\18\DESKTOP\PROJECT GRANADA\ENGINE\DEBUG\ENGINE.OBJ|C:\USERS\18\DESKTOP\PROJECT GRANADA\ENGINE\DEBUG\GAME.OBJ|C:\USERS\18\DESKTOP\PROJECT GRANADA\ENGINE\DEBUG\ITEM.OBJ|C:\USERS\18\DESKTOP\PROJECT GRANADA\ENGINE\DEBUG\STDAFX.OBJ|C:\USERS\18\DESKTOP\PROJECT GRANADA\ENGINE\DEBUG\WALL.OBJ
/OUT:"C:\USERS\18\DESKTOP\PROJECT GRANADA\DEBUG\ENGINE.DLL" /INCREMENTAL /NOLOGO KERNEL32.LIB USER32.LIB GDI32.LIB WINSPOOL.LIB COMDLG32.LIB ADVAPI32.LIB SHELL32.LIB OLE32.LIB OLEAUT32.LIB UUID.LIB ODBC32.LIB ODBCCP32.LIB /MANIFEST /MANIFESTUAC:"level='asInvoker' uiAccess='false'" /manifest:embed /DEBUG /PDB:"C:\USERS\18\DESKTOP\PROJECT GRANADA\DEBUG\ENGINE.PDB" /SUBSYSTEM:WINDOWS /TLBID:1 /DYNAMICBASE /NXCOMPAT /IMPLIB:"C:\USERS\18\DESKTOP\PROJECT GRANADA\DEBUG\ENGINE.LIB" /MACHINE:X86 /DLL DEBUG\ACTOR.OBJDEBUG\BULLET.OBJDEBUG\DLLMAIN.OBJDEBUG\ENGINE.OBJDEBUG\GAME.OBJDEBUG\ITEM.OBJDEBUG\STDAFX.OBJDEBUG\WALL.OBJ
^C:\USERS\822\DESKTOP\PROJECT GRANADA\ENGINE\DEBUG\ACTOR.OBJ|C:\USERS\822\DESKTOP\PROJECT GRANADA\ENGINE\DEBUG\BULLET.OBJ|C:\USERS\822\DESKTOP\PROJECT GRANADA\ENGINE\DEBUG\DLLMAIN.OBJ|C:\USERS\822\DESKTOP\PROJECT GRANADA\ENGINE\DEBUG\ENGINE.OBJ|C:\USERS\822\DESKTOP\PROJECT GRANADA\ENGINE\DEBUG\GAME.OBJ|C:\USERS\822\DESKTOP\PROJECT GRANADA\ENGINE\DEBUG\ITEM.OBJ|C:\USERS\822\DESKTOP\PROJECT GRANADA\ENGINE\DEBUG\STDAFX.OBJ|C:\USERS\822\DESKTOP\PROJECT GRANADA\ENGINE\DEBUG\WALL.OBJ
/OUT:"C:\USERS\822\DESKTOP\PROJECT GRANADA\DEBUG\ENGINE.DLL" /INCREMENTAL /NOLOGO KERNEL32.LIB USER32.LIB GDI32.LIB WINSPOOL.LIB COMDLG32.LIB ADVAPI32.LIB SHELL32.LIB OLE32.LIB OLEAUT32.LIB UUID.LIB ODBC32.LIB ODBCCP32.LIB /MANIFEST /MANIFESTUAC:"level='asInvoker' uiAccess='false'" /manifest:embed /DEBUG /PDB:"C:\USERS\822\DESKTOP\PROJECT GRANADA\DEBUG\ENGINE.PDB" /SUBSYSTEM:WINDOWS /TLBID:1 /DYNAMICBASE /NXCOMPAT /IMPLIB:"C:\USERS\822\DESKTOP\PROJECT GRANADA\DEBUG\ENGINE.LIB" /MACHINE:X86 /DLL DEBUG\ACTOR.OBJDEBUG\BULLET.OBJDEBUG\DLLMAIN.OBJDEBUG\ENGINE.OBJDEBUG\GAME.OBJDEBUG\ITEM.OBJDEBUG\STDAFX.OBJDEBUG\WALL.OBJ
